HoleID, East, North, Elevation
DDH01,424055,5889305,293.700
DDH02,426109,5890224,325.100
DDH03,428315,5890912,336.700
DDH04,429677,5891424,337.400
DDH05,431102,5891960,399.300
DDH06,428535,5888500,330.400
DDH07,429730,5887630,363.700
DDH08,430435,5887120,386.400
DDH09,431462,5886380,441.900
DDH10,432449,5888990,489.900
